Análisis de datos con lubridate, dplyr y tidyr
…
# Agrupar por mes y alcaldía y calculo del promedio
promedio_incidentes <- llamadas %>%
  group_by(mes_creacion, alcaldia_cierre, categoria_incidente_c4) %>%
  summarise(promedio_incidentes = n() / n_distinct(categoria_incidente_c4)) %>%
  ungroup()

## `summarise()` has grouped output by 'mes_creacion', 'alcaldia_cierre'. You can
## override using the `.groups` argument.

# Mostrar resultados
print(promedio_incidentes)

## # A tibble: 1,659 × 4
##    mes_creacion alcaldia_cierre categoria_incidente_c4 promedio_incidentes
##    <chr>        <chr>           <chr>                                <dbl>
##  1 Abril        ALVARO OBREGON  Abandono                                12
##  2 Abril        ALVARO OBREGON  Accidente                                2
##  3 Abril        ALVARO OBREGON  Administrativas                       1052
##  4 Abril        ALVARO OBREGON  Amenaza                                 32
##  5 Abril        ALVARO OBREGON  Contra la salud                         43
##  6 Abril        ALVARO OBREGON  Denuncia                               543
##  7 Abril        ALVARO OBREGON  Derrame o fuga                         436
##  8 Abril        ALVARO OBREGON  Disturbio                              892
##  9 Abril        ALVARO OBREGON  Incendio                               947
## 10 Abril        ALVARO OBREGON  Intento de suicidio                      1
## # ℹ 1,649 more rows
…
